﻿{
	"editors": [
		{
			"type": "form",
			"id": 1,
			"formName": "Utilisateur"
		},
		{
			"type": "explorer"
		},
		{
			"type": "method",
			"id": 2147483644,
			"codeDescriptor": {
				"type": 1,
				"methodName": "ui_enableHoverboard"
			}
		}
	]
}